module tiniki.ga/todo-api

go 1.13

require (
	github.com/dgrijalva/jwt-go v3.2.0+incompatible
	github.com/go-playground/locales v0.13.0 // indirect
	github.com/go-playground/universal-translator v0.16.0 // indirect
	github.com/jinzhu/gorm v1.9.11
	github.com/joho/godotenv v1.3.0
	github.com/kr/pretty v0.1.0 // indirect
	github.com/labstack/echo v3.3.10+incompatible
	github.com/labstack/gommon v0.3.0 // indirect
	github.com/leodido/go-urn v1.2.0 // indirect
	golang.org/x/crypto v0.0.0-20191108234033-bd318be0434a
	gopkg.in/go-playground/assert.v1 v1.2.1 // indirect
	gopkg.in/go-playground/validator.v9 v9.30.0
)
